<?xml version="1.0" encoding="UTF-8"?>
<svg width="44px" height="56px" viewBox="0 0 44 56" version="1.1" xmlns="http://www.w3.org/2000/svg" xmlns:xlink="http://www.w3.org/1999/xlink">
    <!-- Generator: Sketch 57.1 (83088) - https://sketch.com -->
    <title>Group 9</title>
    <desc>Created with Sketch.</desc>
    <g id="Page-1" stroke="none" stroke-width="1" fill="none" fill-rule="evenodd">
        <g id="27.3---Press-Center-v3" transform="translate(-399.000000, -990.000000)" fill="#FFFFFF" fill-rule="nonzero">
            <g id="Group-6" transform="translate(60.000000, 713.000000)">
                <g id="vacant-closed" transform="translate(0.000000, 30.000000)">
                    <g id="Group-12">
                        <g transform="translate(317.000000, 222.000000)">
                            <g id="Group-9" transform="translate(22.000400, 25.500800)">
                                <path d="M42.7266632,13.9533263 L30.0465579,1.27322105 C29.2369579,0.463621053 28.1355684,7.81597009e-14 27.0364947,7.81597009e-14 L4.28328421,7.81597009e-14 C3.12538947,7.81597009e-14 2.08282105,0.463609474 1.27322105,1.27322105 C0.463621053,2.08507895 1.16529009e-12,3.12538947 1.16529009e-12,4.28328421 L1.16529009e-12,50.7142842 C1.16529009e-12,53.0888947 1.91098947,54.9975684 4.28328421,54.9975684 L39.7142842,54.9975684 C42.0888947,54.9975684 43.9975684,53.0865789 43.9975684,50.7142842 L43.9998298,16.9633895 C43.9998298,15.8620579 43.5362203,14.7629263 42.7266087,13.9533263 L42.7266632,13.9533263 Z M40.2955474,14.9936368 L30.9148632,14.9936368 C29.8722947,14.9936368 29.0038737,14.1252158 29.0038737,13.0826474 L29.0061351,3.76275263 L40.2955474,14.9936368 Z M39.7166,52.51004 L4.28328421,52.51004 C3.29953684,52.51004 2.48762105,51.7004053 2.48762105,50.7143421 L2.48988242,4.28334211 C2.48988242,3.81973263 2.66401821,3.3561 3.01003189,3.01012105 C3.35830347,2.66184947 3.81963189,2.48997158 4.28325295,2.48997158 L26.513674,2.48997158 L26.513674,13.0852874 C26.513674,15.5164032 28.4811687,17.4862137 30.9146003,17.4862137 L41.5099161,17.4862137 L41.5099161,50.7166347 C41.5099161,51.7003821 40.7003161,52.51004 39.7165108,52.51004 L39.7166,52.51004 Z" id="Shape"></path>
                                <g id="Group-13" transform="translate(14.040361, 25.539961)">
                                    <polygon id="Path" points="-3.4408032e-12 8.96730435 6.94573913 8.96730435 6.94573913 15.9130435 -3.4408032e-12 15.9130435"></polygon>
                                    <polygon id="Path" points="-3.4408032e-12 -3.01980663e-14 6.94573913 -3.01980663e-14 6.94573913 6.94573913 -3.4408032e-12 6.94573913"></polygon>
                                    <polygon id="Path" points="8.96730435 8.96730435 15.9130435 8.96730435 15.9130435 15.9130435 8.96730435 15.9130435"></polygon>
                                    <polygon id="Path" points="8.96730435 -3.01980663e-14 15.9130435 -3.01980663e-14 15.9130435 6.94573913 8.96730435 6.94573913"></polygon>
                                </g>
                            </g>
                        </g>
                    </g>
                </g>
            </g>
        </g>
    </g>
</svg>