<?xml version="1.0" encoding="UTF-8"?>
<svg width="17px" height="11px" viewBox="0 0 17 11" version="1.1" xmlns="http://www.w3.org/2000/svg" xmlns:xlink="http://www.w3.org/1999/xlink">
    <!-- Generator: Sketch 57.1 (83088) - https://sketch.com -->
    <title>Path</title>
    <desc>Created with Sketch.</desc>
    <g id="Page-1" stroke="none" stroke-width="1" fill="none" fill-rule="evenodd">
        <g id="13---Maritime" transform="translate(-771.000000, -1008.000000)" fill="#a8abd3" fill-rule="nonzero">
            <g id="Group-3" transform="translate(60.000000, 688.000000)">
                <g id="Group">
                    <g id="Group-10" transform="translate(603.000000, 301.000000)">
                        <path d="M116.501537,32.6511801 C116.685663,32.644137 116.898977,32.5676689 117.032788,32.4418997 L121.411579,28.3206839 C121.662113,28.0409821 121.765746,27.5056877 121.475973,27.1937889 C121.190219,26.8859083 120.635838,26.8959796 120.349078,27.2018382 L117.274136,30.099568 L117.274136,16.4238286 C117.274136,15.9972312 116.928006,15.6511006 116.501408,15.6511006 C116.074811,15.6511006 115.72868,15.9972312 115.72868,16.4238286 L115.72868,30.099568 L112.653738,27.2018382 C112.38913,26.9382349 111.815612,26.8889349 111.526843,27.1937889 C111.238075,27.4976513 111.330643,28.0530367 111.591237,28.3206839 L115.970029,32.4418997 C116.119946,32.5827628 116.296017,32.6511801 116.50128,32.6511801 L116.501537,32.6511801 Z" id="Path" transform="translate(116.500040, 24.151140) rotate(-90.000000) translate(-116.500040, -24.151140) "></path>
                    </g>
                </g>
            </g>
        </g>
    </g>
</svg>