<?xml version="1.0" encoding="UTF-8" standalone="no"?>
<svg width="14px" height="14px" viewBox="0 0 14 14" version="1.1" xmlns="http://www.w3.org/2000/svg" xmlns:xlink="http://www.w3.org/1999/xlink" xmlns:sketch="http://www.bohemiancoding.com/sketch/ns">
    <!-- Generator: Sketch 3.4.4 (17249) - http://www.bohemiancoding.com/sketch -->
    <title>LinkedIn</title>
    <desc>Created with Sketch.</desc>
    <defs></defs>
    <g id="Page-1" stroke="none" stroke-width="1" fill="none" fill-rule="evenodd" sketch:type="MSPage">
        <g id="00_menu_mobile_dine" sketch:type="MSArtboardGroup" transform="translate(-272.000000, -1012.000000)" fill="#808080">
            <g id="icon_linkedin" sketch:type="MSLayerGroup" transform="translate(263.000000, 1005.000000)">
                <path d="M23,20.4759358 L19.905809,20.4759358 L19.905809,15.7386055 C19.905809,14.4986158 19.4218015,13.6521092 18.3574788,13.6521092 C17.5433913,13.6521092 17.0906632,14.2233501 16.8799389,14.7738814 C16.8009172,14.9714859 16.8132643,15.2467515 16.8132643,15.5220172 L16.8132643,20.4759358 L13.7478833,20.4759358 C13.7478833,20.4759358 13.7873942,12.0842168 13.7478833,11.3214117 L16.8132643,11.3214117 L16.8132643,12.758143 C16.9943556,12.1299506 17.9738946,11.2333957 19.5370414,11.2333957 C21.4763641,11.2333957 23,12.5501837 23,15.3856787 L23,20.4759358 L23,20.4759358 Z M10.6479304,10.1763412 L10.628175,10.1763412 C9.64040452,10.1763412 9,9.47652788 9,8.58946493 C9,7.68514395 9.65933678,7 10.6668627,7 C11.6735654,7 12.2925682,7.68341815 12.3123236,8.58687622 C12.3123236,9.47393917 11.6735654,10.1763412 10.6479304,10.1763412 L10.6479304,10.1763412 L10.6479304,10.1763412 Z M9.35312794,11.3214117 L12.0818438,11.3214117 L12.0818438,20.4759358 L9.35312794,20.4759358 L9.35312794,11.3214117 L9.35312794,11.3214117 Z" id="LinkedIn" sketch:type="MSShapeGroup"></path>
            </g>
        </g>
    </g>
</svg>